DEM 7223 - Event History Analysis - Parametric Hazard Models
…
Code

e.long1 <- e.long1%>%
  group_by(childid)%>%
  mutate(nexpov = dplyr::lead(pov,n=1, order_by = childid))%>%
  mutate(povtran = ifelse(nexpov == 1 & pov == 0, 1, 0))

#find which kids failed in the first time period and remove them from the second risk period risk set
failed1<-which(is.na(e.long1$povtran)==T)
e.long1<-e.long1[-failed1,]

print(e.long1, n = 27)

# A tibble: 4,316 × 10
# Groups:   childid [2,072]
   childid   male race_rec mlths mgths wave    age   pov nexpov povtran
   <chr>    <dbl> <fct>    <dbl> <dbl> <chr> <dbl> <dbl>  <dbl>   <dbl>
 1 10000014     1 nhwhite      0     0 1      5.65     0      0       0
 2 10000014     1 nhwhite      0     0 2      7.16     0      0       0
 3 10000020     0 nhasian      0     0 1      5.70     0      0       0
 4 10000020     0 nhasian      0     0 2      7.38     0      0       0
 5 10000022     0 other        0     1 1      5.72     0      0       0
 6 10000022     0 other        0     1 2      7.31     0      0       0
 7 10000029     0 nhwhite      1     0 1      5.78     0      0       0
 8 10000029     0 nhwhite      1     0 2      7.24     0      0       0
 9 10000034     1 nhblack      0     0 1      6.35     0      0       0
10 10000034     1 nhblack      0     0 2      7.78     0      1       1
11 10000034     1 nhblack      0     0 3      8.30     1     NA       0
12 10000040     0 nhasian      0     1 1      5.36     0      0       0
13 10000040     0 nhasian      0     1 2      6.90     0      0       0
14 10000046     1 nhwhite      0     1 1      5.92     0      0       0
15 10000046     1 nhwhite      0     1 2      7.38     0      0       0
16 10000047     1 nhwhite      0     0 1      5.23     0      0       0
17 10000047     1 nhwhite      0     0 2      6.71     0      0       0
18 10000053     1 nhwhite      0     1 1      5.29     0      0       0
19 10000053     1 nhwhite      0     1 2      6.93     0      0       0
20 10000062     1 hispanic     0     1 1      5.82     0      1       1
21 10000062     1 hispanic     0     1 2      7.21     1      1       0
22 10000062     1 hispanic     0     1 3      7.85     1     NA       0
23 10000066     1 hispanic     0     1 1      5.38     0      0       0
24 10000066     1 hispanic     0     1 2      6.89     0      0       0
25 10000075     1 nhwhite      0     1 1      5.53     0      0       0
26 10000075     1 nhwhite      0     1 2      6.98     0      0       0
27 10000092     1 nhwhite      0     1 1      5.32     0      0       0
# … with 4,289 more rows
…
